id;alias_cuenta_asocia
1;Squares mint green e-business
2;Ghana back-end National
3;Direct
4;Profit-focused
5;Jewelery cutting-edge
6;Games
7;Iraq Bedfordshire
8;Concrete 24/7 Directives
9;sky blue
10;Kenyan Shilling robust
